…
    ## Warning: `as_data_frame()` was deprecated in tibble 2.0.0.
    ## ℹ Please use `as_tibble()` instead.
    ## ℹ The signature and semantics have changed, see `?as_tibble`.
    ## ℹ The deprecated feature was likely used in the purrr package.
    ##   Please report the issue at <]8;;https://github.com/tidyverse/purrr/issueshttps://github.com/tidyverse/purrr/issues]8;;>.

    ## Warning: `cols` is now required when using unnest().
    ## Please use `cols = c(strap)`

``` r
degano2024_acc_rate
```

    ## # A tibble: 35 × 7
    ## # Groups:   model [7]
    ##    model               Condition     n empirical_stat ci_lower   mean ci_upper
    ##    <chr>               <chr>     <int>          <dbl>    <dbl>  <dbl>    <dbl>
    ##  1 Llama-2-13b-chat-hf Bad          54         0        0      0         0    
    ##  2 Llama-2-13b-chat-hf Good         45         0        0      0         0    
    ##  3 Llama-2-13b-chat-hf Good-Excl     9         0        0      0         0    
    ##  4 Llama-2-13b-chat-hf Target_1     18         0        0      0         0    
    ##  5 Llama-2-13b-chat-hf Target_2     18         0        0      0         0    
    ##  6 Llama-2-13b-hf      Bad          54         0.185    0.0847 0.185     0.298
    ##  7 Llama-2-13b-hf      Good         45         0.356    0.217  0.355     0.489
    ##  8 Llama-2-13b-hf      Good-Excl     9         0.222    0      0.209     0.5  
    ##  9 Llama-2-13b-hf      Target_1     18         0.167    0      0.164     0.353
    ## 10 Llama-2-13b-hf      Target_2     18         0.0556   0      0.0543    0.2  
    ## # … with 25 more rows
…
    ## Warning: `cols` is now required when using unnest().
    ## Please use `cols = c(strap)`

``` r
marty2023_summary
```

    ## # A tibble: 56 × 8
    ## # Groups:   model, Quantifier_type [14]
    ##    model               Quantifier…¹ Condi…²     n empir…³ ci_lo…⁴   mean ci_up…⁵
    ##    <chr>               <chr>        <chr>   <int>   <dbl>   <dbl>  <dbl>   <dbl>
    ##  1 Llama-2-13b-chat-hf Modal        Bad        36  0            0 0        0    
    ##  2 Llama-2-13b-chat-hf Modal        Good       36  0            0 0        0    
    ##  3 Llama-2-13b-chat-hf Modal        Target…    12  0            0 0        0    
    ##  4 Llama-2-13b-chat-hf Modal        Target…    12  0            0 0        0    
    ##  5 Llama-2-13b-chat-hf Nominal      Bad        36  0            0 0        0    
    ##  6 Llama-2-13b-chat-hf Nominal      Good       36  0.0556       0 0.0561   0.143
    ##  7 Llama-2-13b-chat-hf Nominal      Target…    12  0.0833       0 0.0778   0.267
    ##  8 Llama-2-13b-chat-hf Nominal      Target…    12  0            0 0        0    
    ##  9 Llama-2-13b-hf      Modal        Bad        36  0            0 0        0    
    ## 10 Llama-2-13b-hf      Modal        Good       36  0            0 0        0    
    ## # … with 46 more rows, and abbreviated variable names ¹​Quantifier_type,
    ## #   ²​Condition, ³​empirical_stat, ⁴​ci_lower, ⁵​ci_upper
…
    ## Warning: `cols` is now required when using unnest().
    ## Please use `cols = c(strap)`

``` r
marty2022_summary
```

    ## # A tibble: 504 × 10
    ## # Groups:   model, Negation, Polarity, Inference_type [168]
    ##    model     Negat…¹ Polar…² Infer…³ Condi…⁴     n empir…⁵ ci_lo…⁶  mean ci_up…⁷
    ##    <chr>     <chr>   <chr>   <chr>   <chr>   <int>   <dbl>   <dbl> <dbl>   <dbl>
    ##  1 Llama-2-… High    Negati… DIST    Bad         3   0.667       0 0.657       1
    ##  2 Llama-2-… High    Negati… DIST    Good        3   1           1 1           1
    ##  3 Llama-2-… High    Negati… DIST    Target      3   1           1 1           1
    ##  4 Llama-2-… High    Negati… FC      Bad         3   0.667       0 0.657       1
    ##  5 Llama-2-… High    Negati… FC      Good        3   1           1 1           1
    ##  6 Llama-2-… High    Negati… FC      Target      3   1           1 1           1
    ##  7 Llama-2-… High    Negati… II      Bad         3   0.667       0 0.687       1
    ##  8 Llama-2-… High    Negati… II      Good        3   1           1 1           1
    ##  9 Llama-2-… High    Negati… II      Target      3   1           1 1           1
    ## 10 Llama-2-… High    Negati… SI      Bad         3   1           1 1           1
    ## # … with 494 more rows, and abbreviated variable names ¹​Negation, ²​Polarity,
    ## #   ³​Inference_type, ⁴​Condition, ⁵​empirical_stat, ⁶​ci_lower, ⁷​ci_upper
…
Now the same plots are replicated with the average probability assigned
to the “acceptance” response.

    ## # A tibble: 35 × 7
    ## # Groups:   model [7]
    ##    model               Condition     n empirical_stat ci_lower  mean ci_upper
    ##    <chr>               <chr>     <int>          <dbl>    <dbl> <dbl>    <dbl>
    ##  1 Llama-2-13b-chat-hf Bad          54          0.174    0.164 0.174    0.184
    ##  2 Llama-2-13b-chat-hf Good         45          0.173    0.164 0.173    0.184
    ##  3 Llama-2-13b-chat-hf Good-Excl     9          0.214    0.186 0.214    0.239
    ##  4 Llama-2-13b-chat-hf Target_1     18          0.166    0.151 0.166    0.180
    ##  5 Llama-2-13b-chat-hf Target_2     18          0.169    0.151 0.168    0.186
    ##  6 Llama-2-13b-hf      Bad          54          0.442    0.427 0.442    0.456
    ##  7 Llama-2-13b-hf      Good         45          0.479    0.456 0.479    0.503
    ##  8 Llama-2-13b-hf      Good-Excl     9          0.446    0.391 0.444    0.491
    ##  9 Llama-2-13b-hf      Target_1     18          0.432    0.407 0.432    0.459
    ## 10 Llama-2-13b-hf      Target_2     18          0.420    0.395 0.421    0.448
    ## # … with 25 more rows

    ## # A tibble: 56 × 8
    ## # Groups:   model, Quantifier_type [14]
    ##    model               Quantifier_…¹ Condi…²     n empir…³ ci_lo…⁴  mean ci_up…⁵
    ##    <chr>               <chr>         <chr>   <int>   <dbl>   <dbl> <dbl>   <dbl>
    ##  1 Llama-2-13b-chat-hf Modal         Bad        36   0.368   0.352 0.369   0.386
    ##  2 Llama-2-13b-chat-hf Modal         Good       36   0.355   0.338 0.355   0.372
    ##  3 Llama-2-13b-chat-hf Modal         Target…    12   0.366   0.336 0.366   0.400
    ##  4 Llama-2-13b-chat-hf Modal         Target…    12   0.353   0.328 0.352   0.378
    ##  5 Llama-2-13b-chat-hf Nominal       Bad        36   0.360   0.346 0.360   0.374
    ##  6 Llama-2-13b-chat-hf Nominal       Good       36   0.371   0.354 0.371   0.390
    ##  7 Llama-2-13b-chat-hf Nominal       Target…    12   0.341   0.307 0.342   0.386
    ##  8 Llama-2-13b-chat-hf Nominal       Target…    12   0.361   0.327 0.360   0.396
    ##  9 Llama-2-13b-hf      Modal         Bad        36   0.293   0.278 0.293   0.309
    ## 10 Llama-2-13b-hf      Modal         Good       36   0.334   0.318 0.335   0.353
    ## # … with 46 more rows, and abbreviated variable names ¹​Quantifier_type,
    ## #   ²​Condition, ³​empirical_stat, ⁴​ci_lower, ⁵​ci_upper

    ## # A tibble: 504 × 10
    ## # Groups:   model, Negation, Polarity, Inference_type [168]
    ##    model     Negat…¹ Polar…² Infer…³ Condi…⁴     n empir…⁵ ci_lo…⁶  mean ci_up…⁷
    ##    <chr>     <chr>   <chr>   <chr>   <chr>   <int>   <dbl>   <dbl> <dbl>   <dbl>
    ##  1 Llama-2-… High    Negati… DIST    Bad         3   0.580   0.498 0.579   0.688
    ##  2 Llama-2-… High    Negati… DIST    Good        3   0.602   0.581 0.602   0.615
    ##  3 Llama-2-… High    Negati… DIST    Target      3   0.612   0.523 0.611   0.685
    ##  4 Llama-2-… High    Negati… FC      Bad         3   0.575   0.500 0.573   0.621
    ##  5 Llama-2-… High    Negati… FC      Good        3   0.618   0.552 0.618   0.670
    ##  6 Llama-2-… High    Negati… FC      Target      3   0.564   0.523 0.564   0.643
    ##  7 Llama-2-… High    Negati… II      Bad         3   0.549   0.449 0.547   0.680
    ##  8 Llama-2-… High    Negati… II      Good        3   0.640   0.625 0.640   0.658
    ##  9 Llama-2-… High    Negati… II      Target      3   0.630   0.577 0.630   0.668
    ## 10 Llama-2-… High    Negati… SI      Bad         3   0.537   0.501 0.537   0.590
    ## # … with 494 more rows, and abbreviated variable names ¹​Negation, ²​Polarity,
    ## #   ³​Inference_type, ⁴​Condition, ⁵​empirical_stat, ⁶​ci_lower, ⁷​ci_upper
…
